es\plexus\cedei\heroes\DAO\PersonajeDAO.class
es\plexus\cedei\heroes\services\PersonajeServiceImpl.class
es\plexus\cedei\heroes\DAO\PersonajeDAOImpl.class
es\plexus\cedei\heroes\interceptors\LoginInterceptor.class
es\plexus\cedei\heroes\controllers\HeroesController.class
es\plexus\cedei\heroes\model\Personaje.class
es\plexus\cedei\heroes\services\PersonajeService.class
es\plexus\cedei\heroes\controllers\EntryPointController.class
