C:\Users\cedei06\Desktop\Repo\Heroes\src\main\java\es\plexus\cedei\heroes\DAO\PersonajeDAO.java
C:\Users\cedei06\Desktop\Repo\Heroes\src\main\java\es\plexus\cedei\heroes\DAO\PersonajeDAOImpl.java
C:\Users\cedei06\Desktop\Repo\Heroes\src\main\java\es\plexus\cedei\heroes\model\Personaje.java
C:\Users\cedei06\Desktop\Repo\Heroes\src\main\java\es\plexus\cedei\heroes\services\PersonajeService.java
C:\Users\cedei06\Desktop\Repo\Heroes\src\main\java\es\plexus\cedei\heroes\controllers\HeroesController.java
C:\Users\cedei06\Desktop\Repo\Heroes\src\main\java\es\plexus\cedei\heroes\interceptors\LoginInterceptor.java
C:\Users\cedei06\Desktop\Repo\Heroes\src\main\java\es\plexus\cedei\heroes\controllers\EntryPointController.java
C:\Users\cedei06\Desktop\Repo\Heroes\src\main\java\es\plexus\cedei\heroes\services\PersonajeServiceImpl.java
